<?xml version="1.0" encoding="UTF-8" standalone="no"?>
<svg
   xmlns:dc="http://purl.org/dc/elements/1.1/"
   xmlns:cc="http://creativecommons.org/ns#"
   xmlns:rdf="http://www.w3.org/1999/02/22-rdf-syntax-ns#"
   xmlns:svg="http://www.w3.org/2000/svg"
   xmlns="http://www.w3.org/2000/svg"
   xmlns:sodipodi="http://sodipodi.sourceforge.net/DTD/sodipodi-0.dtd"
   xmlns:inkscape="http://www.inkscape.org/namespaces/inkscape"
   version="1.1"
   id="svg1"
   width="16"
   height="16"
   viewBox="0 0 16 16"
   sodipodi:docname="tool-measure-symbolic.svg"
   inkscape:version="1.0alpha2 (92053aa9ea, 2019-06-13)">
   <style id="style226">
      .success { fill:#4AD589; }
      .warning { fill:#F57900; }
      .error { fill:#cc0000; }
   </style>
  <metadata
     id="metadata852">
    <rdf:RDF>
      <cc:Work
         rdf:about="">
        <dc:format>image/svg+xml</dc:format>
        <dc:type
           rdf:resource="http://purl.org/dc/dcmitype/StillImage" />
      </cc:Work>
    </rdf:RDF>
  </metadata>
  <defs
     id="defs850" />
  <sodipodi:namedview
     objecttolerance="10"
     gridtolerance="10"
     guidetolerance="10"
     id="namedview"
     showgrid="true"
     inkscape:zoom="31.678384"
     inkscape:cx="7.969267"
     inkscape:cy="7.571171"
     inkscape:window-width="1360"
     inkscape:window-height="704"
     inkscape:window-x="0"
     inkscape:window-y="27"
     inkscape:window-maximized="1"
     inkscape:current-layer="svg1"
     inkscape:document-rotation="0">
    <inkscape:grid
       type="xygrid"
       id="grid" />
    <style
       id="style862">.success { fill:#25FF4E; }
.error { fill:#CC0000; }
.warning { fill:#FF25CE; }
</style>
  </sodipodi:namedview>
  <rect
     style="opacity:0.60953183"
     ry="0"
     rx="0"
     y="2"
     x="8.0427818"
     height="12.666823"
     width="3.0714278"
     id="rect878"
     class="error" />
  <rect
     style="opacity:0.78496546"
     class="error"
     id="rect856"
     width="3.0714278"
     height="12.666823"
     x="5"
     y="2"
     rx="0"
     ry="0" />
  <g
     transform="matrix(0.666667,0,0,0.666667,-189.69806,-598.89953)"
     id="tool-measure"
     inkscape:label="00336">
    <path
       inkscape:connector-curvature="0"
       id="rect13362"
       d="m 284.54709,898.3493 h 24 v 24 h -24 z"
       style="opacity:0;fill:none" />
    <path
       style="opacity:1"
       d="m 290.6066,900.4247 v 20.9959 h 11.9246 v -17.1209 c 0,-1.8792 -1.1179,-3.875 -3.6875,-3.875 z m 2,2 h 6.1216 c 1.3125,0 1.8125,0.8107 1.8125,1.9375 v 15.0312 h -7.9341 z"
       id="path13364"
       inkscape:connector-curvature="0" />
    <path
       inkscape:connector-curvature="0"
       id="rect13370"
       d="m 292.65979,903.36218 h 3.25001 c 0.277,0 0.5,0.223 0.5,0.5 0,0.277 -0.223,0.5 -0.5,0.5 h -3.25001 c -0.277,0 -0.5,-0.223 -0.5,-0.5 0,-0.277 0.223,-0.5 0.5,-0.5 z"
       style="opacity:1" />
    <path
       inkscape:connector-curvature="0"
       id="rect13372"
       d="m 292.65979,911.36218 h 3.25001 c 0.277,0 0.5,0.223 0.5,0.5 0,0.277 -0.223,0.5 -0.5,0.5 h -3.25001 c -0.277,0 -0.5,-0.223 -0.5,-0.5 0,-0.277 0.223,-0.5 0.5,-0.5 z"
       style="opacity:1" />
    <path
       inkscape:connector-curvature="0"
       id="rect13376"
       d="m 292.72229,917.36218 h 1.18751 c 0.277,0 0.5,0.223 0.5,0.5 0,0.277 -0.223,0.5 -0.5,0.5 h -1.18751 c -0.277,0 -0.5,-0.223 -0.5,-0.5 0,-0.277 0.223,-0.5 0.5,-0.5 z"
       style="opacity:1" />
    <path
       inkscape:connector-curvature="0"
       id="rect13378"
       d="m 292.72229,915.36218 h 1.18751 c 0.277,0 0.5,0.223 0.5,0.5 0,0.277 -0.223,0.5 -0.5,0.5 h -1.18751 c -0.277,0 -0.5,-0.223 -0.5,-0.5 0,-0.277 0.223,-0.5 0.5,-0.5 z"
       style="opacity:1" />
    <path
       inkscape:connector-curvature="0"
       id="rect13380"
       d="m 292.72229,913.36218 h 1.18751 c 0.277,0 0.5,0.223 0.5,0.5 0,0.277 -0.223,0.5 -0.5,0.5 h -1.18751 c -0.277,0 -0.5,-0.223 -0.5,-0.5 0,-0.277 0.223,-0.5 0.5,-0.5 z"
       style="opacity:1" />
    <path
       inkscape:connector-curvature="0"
       id="rect13382"
       d="m 292.72229,909.36218 h 1.18751 c 0.277,0 0.5,0.223 0.5,0.5 0,0.277 -0.223,0.5 -0.5,0.5 h -1.18751 c -0.277,0 -0.5,-0.223 -0.5,-0.5 0,-0.277 0.223,-0.5 0.5,-0.5 z"
       style="opacity:1" />
    <path
       inkscape:connector-curvature="0"
       id="rect13384"
       d="m 292.72229,907.36218 h 1.18751 c 0.277,0 0.5,0.223 0.5,0.5 0,0.277 -0.223,0.5 -0.5,0.5 h -1.18751 c -0.277,0 -0.5,-0.223 -0.5,-0.5 0,-0.277 0.223,-0.5 0.5,-0.5 z"
       style="opacity:1" />
    <path
       inkscape:connector-curvature="0"
       id="rect13386"
       d="m 292.72229,905.36218 h 1.18751 c 0.277,0 0.5,0.223 0.5,0.5 0,0.277 -0.223,0.5 -0.5,0.5 h -1.18751 c -0.277,0 -0.5,-0.223 -0.5,-0.5 0,-0.277 0.223,-0.5 0.5,-0.5 z"
       style="opacity:1" />
  </g>
</svg>
